…
    ## Rows: 63 Columns: 3
    ## ── Column specification ────────────────────────────────────────────────────────
    ## Delimiter: ","
    ## chr (1): name
    ## dbl (2): house, age
    ## 
    ## ℹ Use `spec()` to retrieve the full column specification for this data.
    ## ℹ Specify the column types or set `show_col_types = FALSE` to quiet this message.

``` r
df_sample_seq 
```

    ## # A tibble: 63 × 3
    ##    house   age name             
    ##    <dbl> <dbl> <chr>            
    ##  1     1    58 Arvid Thorn      
    ##  2     1    55 Benjamin Connolly
    ##  3     2    46 Remy Tiwari      
    ##  4     2    44 Sophia Solberg   
    ##  5     2    14 Illona Solberg   
    ##  6     2    12 William Tiwari   
    ##  7     2    10 Hans Solberg     
    ##  8     3    24 Kaya Carlsen     
    ##  9     3    23 Julian Eklund    
    ## 10     3     4 Katharina Carlsen
    ## # ℹ 53 more rows
…
## TASK: Compute the prevalence and sort
df_q3 <- 
  df_sample_seq %>% 
## TODO: Complete this code
    mutate(last_name = sapply(strsplit(as.character(name)," "), function(x) tail(x, 1))) %>%
  group_by(last_name) %>% 
  summarise(
   n = n(),
   p = n() / nrow(.)
   ) %>% 
  arrange(desc(p))
df_q3
```

    ## # A tibble: 28 × 3
    ##    last_name     n      p
    ##    <chr>     <int>  <dbl>
    ##  1 Sorensen      8 0.127 
    ##  2 Lund          6 0.0952
    ##  3 Solberg       5 0.0794
    ##  4 Eklund        4 0.0635
    ##  5 Blomgren      3 0.0476
    ##  6 Carlsen       3 0.0476
    ##  7 Jansen        3 0.0476
    ##  8 Morris        3 0.0476
    ##  9 Banerjee      2 0.0317
    ## 10 Chunduri      2 0.0317
    ## # ℹ 18 more rows
…
Run the code below to find the prevalence of the most common *last name*
in Helvig using the sample `df_sample_random`. Answer the questions
below.

``` r
# NOTE: No need to edit; run and answer the questions below
df_sample_random %>% 
  mutate(last = str_extract(name, "\\w+$")) %>% 
  count(last) %>% 
  arrange(desc(n)) %>% 
  mutate(p = n / sum(n))
```

    ## # A tibble: 27 × 3
    ##    last         n      p
    ##    <chr>    <int>  <dbl>
    ##  1 Collins      6 0.1   
    ##  2 Blomgren     4 0.0667
    ##  3 Jensen       4 0.0667
    ##  4 Regan        4 0.0667
    ##  5 Sorensen     4 0.0667
    ##  6 Carlsen      3 0.05  
    ##  7 Lund         3 0.05  
    ##  8 Solberg      3 0.05  
    ##  9 Burke        2 0.0333
    ## 10 Edwards      2 0.0333
    ## # ℹ 17 more rows
…
